…
mutate_if
==========================================


```r
starwars %>% 
  mutate_if(is.numeric, ~round(.) )
```

select_at 
================= 
 

```
# A tibble: 87 x 3
   hair_color    skin_color  eye_color
   <chr>         <chr>       <chr>    
 1 blond         fair        blue     
 2 <NA>          gold        yellow   
 3 <NA>          white, blue red      
 4 none          white       yellow   
 5 brown         light       brown    
 6 brown, grey   light       blue     
 7 brown         light       blue     
 8 <NA>          white, red  red      
 9 black         light       brown    
10 auburn, white fair        blue-gray
# … with 77 more rows
```

```
# A tibble: 87 x 10
   name  height  mass birth_year gender homeworld species films vehicles
   <chr>  <int> <dbl>      <dbl> <chr>  <chr>     <chr>   <lis> <list>  
 1 Luke…    172    77       19   male   Tatooine  Human   <chr… <chr [2…
 2 C-3PO    167    75      112   <NA>   Tatooine  Droid   <chr… <chr [0…
 3 R2-D2     96    32       33   <NA>   Naboo     Droid   <chr… <chr [0…
 4 Dart…    202   136       41.9 male   Tatooine  Human   <chr… <chr [0…
 5 Leia…    150    49       19   female Alderaan  Human   <chr… <chr [1…
 6 Owen…    178   120       52   male   Tatooine  Human   <chr… <chr [0…
 7 Beru…    165    75       47   female Tatooine  Human   <chr… <chr [0…
 8 R5-D4     97    32       NA   <NA>   Tatooine  Droid   <chr… <chr [0…
 9 Bigg…    183    84       24   male   Tatooine  Human   <chr… <chr [0…
10 Obi-…    182    77       57   male   Stewjon   Human   <chr… <chr [1…
# … with 77 more rows, and 1 more variable: starships <list>
```
…
Solution
==========================================
  

```
[1] "name"       "hair_color" "skin_color" "eye_color"  "gender"    
[6] "homeworld"  "species"   
```

```
# A tibble: 36 x 13
   name  height  mass hair_color skin_color eye_color birth_year gender
   <chr>  <int> <dbl> <chr>      <chr>      <chr>          <dbl> <chr> 
 1 Luke…    172    77 blond      fair       blue            19   male  
 2 C-3PO    167    75 <NA>       gold       yellow         112   <NA>  
 3 R2-D2     96    32 <NA>       white, bl… red             33   <NA>  
 4 Dart…    202   136 none       white      yellow          41.9 male  
 5 Leia…    150    49 brown      light      brown           19   female
 6 Owen…    178   120 brown, gr… light      blue            52   male  
 7 Beru…    165    75 brown      light      blue            47   female
 8 Bigg…    183    84 black      light      brown           24   male  
 9 Obi-…    182    77 auburn, w… fair       blue-gray       57   male  
10 Anak…    188    84 blond      fair       blue            41.9 male  
# … with 26 more rows, and 5 more variables: homeworld <chr>,
#   species <chr>, films <list>, vehicles <list>, starships <list>
```

```
# A tibble: 49 x 4
   homeworld      height  mass birth_year
   <chr>           <dbl> <dbl>      <dbl>
 1 Alderaan         176.  64           43
 2 Aleen Minor       79   15          NaN
 3 Bespin           175   79           37
 4 Bestine IV       180  110          NaN
 5 Cato Neimoidia   191   90          NaN
 6 Cerea            198   82           92
 7 Champala         196  NaN          NaN
 8 Chandrila        150  NaN           48
 9 Concord Dawn     183   79           66
10 Corellia         175   78.5         25
# … with 39 more rows
```
…
